…
    ## [1] 134

``` r
# aisles with the most items ordered
instacart %>% 
  count(aisle_id, aisle) %>% 
  arrange(desc(n))
```

    ## # A tibble: 134 x 3
    ##    aisle_id aisle                              n
    ##       <int> <chr>                          <int>
    ##  1       83 fresh vegetables              150609
    ##  2       24 fresh fruits                  150473
    ##  3      123 packaged vegetables fruits     78493
    ##  4      120 yogurt                         55240
    ##  5       21 packaged cheese                41699
    ##  6      115 water seltzer sparkling water  36617
    ##  7       84 milk                           32644
    ##  8      107 chips pretzels                 31269
    ##  9       91 soy lactosefree                26240
    ## 10      112 bread                          23635
    ## # ... with 124 more rows
…
